…
theme_set(theme_void(base_family = "Roboto"))
theme_update(axis.title.x = element_text(color = "grey30", size = 14, margin = margin(15,0,0,0)),
             axis.text.x = element_text(color = "grey30", size = 14, margin = margin(10,0,0,0)),
             axis.ticks.x = element_line(),
             axis.title.y = element_blank(),
             axis.text.y = element_text(color = "grey30", size = 14, hjust = 1),
             axis.ticks.y = element_line()
             )

mortality <- readxl::read_xlsx("C:/Users/Gustavo/Downloads/global_mortality.xlsx")
mortality

## # A tibble: 6,156 x 35
##    country     country_code  year `Cardiovascular~ `Cancers (%)` `Respiratory di~
##    <chr>       <chr>        <dbl>            <dbl>         <dbl>            <dbl>
##  1 Afghanistan AFG           1990             17.6          4.03             2.11
##  2 Afghanistan AFG           1991             17.8          4.05             2.13
##  3 Afghanistan AFG           1992             18.4          4.17             2.21
##  4 Afghanistan AFG           1993             19.0          4.27             2.28
##  5 Afghanistan AFG           1994             19.1          4.26             2.31
##  6 Afghanistan AFG           1995             19.9          4.39             2.41
##  7 Afghanistan AFG           1996             20.4          4.48             2.49
##  8 Afghanistan AFG           1997             20.4          4.45             2.49
##  9 Afghanistan AFG           1998             19.6          4.26             2.41
## 10 Afghanistan AFG           1999             21.1          4.57             2.60
## # ... with 6,146 more rows, and 29 more variables: Diabetes (%) <dbl>,
## #   Dementia (%) <dbl>, Lower respiratory infections (%) <dbl>,
## #   Neonatal deaths (%) <dbl>, Diarrheal diseases (%) <dbl>,
## #   Road accidents (%) <dbl>, Liver disease (%) <dbl>, Tuberculosis (%) <dbl>,
## #   Kidney disease (%) <dbl>, Digestive diseases (%) <dbl>, HIV/AIDS (%) <dbl>,
## #   Suicide (%) <dbl>, Malaria (%) <dbl>, Homicide (%) <dbl>,
## #   Nutritional deficiencies (%) <dbl>, Meningitis (%) <dbl>, ...
…
